Tidy Tuesday 2020-10-20 : Beer Awards
…
20/10/2020

We will investigate the tidy tuesday dataset for 20/10/2020. The dataset deals with beer awards. See the link for the data source: https://github.com/rfordatascience/tidytuesday/blob/master/data/2020/2020-10-20/readme.md

Lets read the data and quickly view what is happening.

library(tidyverse)
library(skimr)

beer_awards <- readr::read_csv('https://raw.githubusercontent.com/rfordatascience/tidytuesday/master/data/2020/2020-10-20/beer_awards.csv')

beer_awards

## # A tibble: 4,970 x 7
##    medal  beer_name               brewery      city    state category       year
##    <chr>  <chr>                   <chr>        <chr>   <chr> <chr>         <dbl>
##  1 Gold   Volksbier Vienna        Wibby Brewi~ Longmo~ CO    American Amb~  2020
##  2 Silver Oktoberfest             Founders Br~ Grand ~ MI    American Amb~  2020
##  3 Bronze Amber Lager             Skipping Ro~ Staunt~ VA    American Amb~  2020
##  4 Gold   Lager at World's End    Epidemic Al~ Concord CA    American Lag~  2020
##  5 Silver Seismic Tremor          Seismic Bre~ Santa ~ CA    American Lag~  2020
##  6 Bronze Lite Thinking           Pollyanna B~ Lemont  IL    American Lag~  2020
##  7 Gold   Beachscape              Ventura Coa~ Ventura CA    American Pil~  2020
##  8 Silver Imagine a World with B~ Freetail Br~ San An~ TX    American Pil~  2020
##  9 Bronze Pilsner                 Old Town Br~ Portla~ OR    American Pil~  2020
## 10 Gold   Tank 7                  Boulevard B~ Kansas~ MO    American-Bel~  2020
## # ... with 4,960 more rows
…
We will factor all the variables

beer_awards_fct = beer_awards %>%
  mutate(medal = factor(medal, levels = c("Bronze","Silver","Gold") ),
         state = str_to_upper(state),
         across(where(is.character),as.factor)
         )
beer_awards_fct

## # A tibble: 4,970 x 7
##    medal  beer_name               brewery      city    state category       year
##    <fct>  <fct>                   <fct>        <fct>   <fct> <fct>         <dbl>
##  1 Gold   Volksbier Vienna        Wibby Brewi~ Longmo~ CO    American Amb~  2020
##  2 Silver Oktoberfest             Founders Br~ Grand ~ MI    American Amb~  2020
##  3 Bronze Amber Lager             Skipping Ro~ Staunt~ VA    American Amb~  2020
##  4 Gold   Lager at World's End    Epidemic Al~ Concord CA    American Lag~  2020
##  5 Silver Seismic Tremor          Seismic Bre~ Santa ~ CA    American Lag~  2020
##  6 Bronze Lite Thinking           Pollyanna B~ Lemont  IL    American Lag~  2020
##  7 Gold   Beachscape              Ventura Coa~ Ventura CA    American Pil~  2020
##  8 Silver Imagine a World with B~ Freetail Br~ San An~ TX    American Pil~  2020
##  9 Bronze Pilsner                 Old Town Br~ Portla~ OR    American Pil~  2020
## 10 Gold   Tank 7                  Boulevard B~ Kansas~ MO    American-Bel~  2020
## # ... with 4,960 more rows
…
